{
  "migIndex": 1,
  "data": [
    {
      "path": "assets/fonts/Quicksand/Quicksand-VariableFont_wght.ttf",
      "sha1": "17fb514f853cfeb7176a384fa29358e9c4b76c39"
    },
    {
      "path": "assets/fonts/Quicksand/static/Quicksand-Bold.ttf",
      "sha1": "07ca4486c80653a7f3abc18145c2f251d5c9989b"
    },
    {
      "path": "assets/fonts/Quicksand/static/Quicksand-Light.ttf",
      "sha1": "0d6fe8746125375ffd3ea4de6ecf062643a65c52"
    },
    {
      "path": "assets/fonts/Quicksand/static/Quicksand-Medium.ttf",
      "sha1": "9cbdd6785519aa2d85ee58cb5101ea9dbff8652f"
    },
    {
      "path": "assets/fonts/Quicksand/static/Quicksand-Regular.ttf",
      "sha1": "ba6e4d47926d643a8a4b509b193b3a87c3ea385d"
    },
    {
      "path": "assets/fonts/Quicksand/static/Quicksand-SemiBold.ttf",
      "sha1": "1f5c9cf95379bef6cee5f2a7deb393b157c91f4e"
    }
  ]
}
