{
  "project_info": {
    "project_number": "991341865357",
    "project_id": "wask-24b08",
    "storage_bucket": "wask-24b08.appspot.com"
  },
  "client": [
    {
      "client_info": {
        "mobilesdk_app_id": "1:991341865357:android:2bf4ed1d834ebd735175c4",
        "android_client_info": {
          "package_name": "com.waskmobile"
        }
      },
      "oauth_client": [],
      "api_key": [
        {
          "current_key": "AIzaSyAqveR65iYWOp6OG83ePvGjJpKslV4lRsE"
        }
      ],
      "services": {
        "appinvite_service": {
          "other_platform_oauth_client": []
        }
      }
    }
  ],
  "configuration_version": "1"
}